FPGA/EBController.vcd
$date
	Wed Nov  9 10:30:13 2022
$end
$version
	ModelSim Version 2021.4
$end
$timescale
	1ps
$end
$scope module EBRController_tb $end
$var reg 1 ! clk $end
$var reg 1 " reset $end
$var reg 1 # w_enable $end
$var reg 1 $ r_enable $end
$var reg 6 % row_0_sel [5:0] $end
$var reg 6 & row_1_sel [5:0] $end
$var reg 64 g row_0 [63:0] $end
$var reg 64 h row_1 [63:0] $end
$scope module DUT $end
$var integer 32 K! current_state $end
$var integer 32 L! next_state $end
$upscope $end
$upscope $end
$enddefinitions $end
#0
b0 !
b0 "
b0 #
b0 $
b0 %
b100000 &
bx g
bx h
bx K!
bx0xxxxx L!
b0 !
b0 "
b0 #
b0 $
b0 %
b100000 &
#5
b1 !
b1 %
b100001 &
b1 #
bx0xxxxx K!
bx0xxxxxxx L!
#10
b0 !
#15
b1 !
b10 %
b100010 &
b0 #
b1 $
bx0xxxxxxx K!
bx L!
#20
b0 !
#25
b1 !
b11 %
b100011 &
bx K!
bx0xxxxx L!
#30
b0 !
#35
b1 !
b100 %
b100100 &
bx0xxxxx K!
#40
b0 !
#45
b1 !
b101 %
b100101 &
b1000000000000000000000000000000000000 h
b10000 g
#50
b0 !
#55
b1 !
b110 %
b100110 &
b1 #
b10000000000000000000000000000000000000 h
b100000 g
bx0xxxxxxx L!
#60
b0 !
#65
b1 !
b111 %
b100111 &
b0 #
bx0xxxxxxx K!
b100000000000000000000000000000000000000 h
b1000000 g
bx L!
#70
b0 !
#75
b1 !
b1000 %
b101000 &
bx K!
bx0xxxxx L!
#80
b0 !
#85
b1 !
b1001 %
b101001 &
bx0xxxxx K!
#90
b0 !
#95
b1 !
b1010 %
b101010 &
b10000000000000000000000 h
b1000000000000000000000000000000000000000000000000000000 g
#100
b0 !
#105
b1 !
b1011 %
b101011 &
b1000000000000000000000 h
b100000000000000000000000000000000000000000000000000000 g
#110
b0 !
#115
b1 !
b1100 %
b101100 &
b100000000000000000000 h
b10000000000000000000000000000000000000000000000000000 g
#120
b0 !
#125
b1 !
b1101 %
b101101 &
b10000000000000000000 h
b1000000000000000000000000000000000000000000000000000 g
#130
b0 !
#135
b1 !
b1110 %
b101110 &
b1000000000000000000 h
b100000000000000000000000000000000000000000000000000 g
#140
b0 !
#145
b1 !
b1111 %
b101111 &
b100000000000000000 h
b10000000000000000000000000000000000000000000000000 g
#150
b0 !
#155
b1 !
b10000 %
b110000 &
b10000000000000000 h
b1000000000000000000000000000000000000000000000000 g
#160
b0 !
#165
b1 !
b10001 %
b110001 &
b1000000000000000 h
b100000000000000000000000000000000000000000000000 g
#170
b0 !
#175
b1 !
b10010 %
b110010 &
b100000000000000 h
b10000000000000000000000000000000000000000000000 g
#180
b0 !
#185
b1 !
b10011 %
b110011 &
b10000000000000 h
b1000000000000000000000000000000000000000000000 g
#190
b0 !
#195
b1 !
b10100 %
b110100 &
b1000000000000 h
b100000000000000000000000000000000000000000000 g
#200
b0 !
#205
b1 !
b10101 %
b110101 &
b100000000000 h
b10000000000000000000000000000000000000000000 g
#210
b0 !
#215
b1 !
b10110 %
b110110 &
b10000000000 h
b1000000000000000000000000000000000000000000 g
#220
b0 !
#225
b1 !
b10111 %
b110111 &
b1000000000 h
b100000000000000000000000000000000000000000 g
#230
b0 !
#235
b1 !
b11000 %
b111000 &
b100000000 h
b10000000000000000000000000000000000000000 g
#240
b0 !
#245
b1 !
b11001 %
b111001 &
b10000000 h
b1000000000000000000000000000000000000000 g
#250
b0 !
#255
b1 !
b11010 %
b111010 &
b1000000 h
b100000000000000000000000000000000000000 g
#260
b0 !
#265
b1 !
b11011 %
b111011 &
b100000 h
b10000000000000000000000000000000000000 g
#270
b0 !
#275
b1 !
b11100 %
b111100 &
b10000 h
b1000000000000000000000000000000000000 g
#280
b0 !
#285
b1 !
b11101 %
b111101 &
b1000 h
b100000000000000000000000000000000000 g
#290
b0 !
#295
b1 !
b11110 %
b111110 &
b100 h
b10000000000000000000000000000000000 g
#300
b0 !
#305
b1 !
b11111 %
b111111 &
b10 h
b1000000000000000000000000000000000 g
#310
b0 !
